{
  "type": "service_account",
  "project_id": "fanaka-server",
  "private_key_id": "c14c09860a2b7268fd19c6e7b4c0efd64e8ba4e5",
  "private_key": "-----BEGIN PRIVATE KEY-----\nMIIEvgIBADANBgkqhkiG9w0BAQEFAASCBKgwggSkAgEAAoIBAQDFmpul1SFqktaB\n8qQBD8mndDdT/BmEtDASmVgTzwji3vk7ZEYC03/MtQFwyRmXYRIQZmknopoJhEw4\nnUSb3rOrQIWYWg4M1OXg+nsTs1ay/IEHERKgV7hoedtKwHVGVXm1Nz6sCtbL9Fkf\n54EbOcsDs7vGlp0T3k9hT3Hvmom+vPChCMPR99tF4ZqY5ero9iNUcjodlezG5Vcx\nqzbqPbuUnvhErUwDkt6sgBHMQLn/fjRZw4oaQ31P5BxfBMObXc9FpMC85GVvRpXg\nf70LusvwciFPPyzwGFSBgcaot6j/rMuxh9gnMnEyFPjkLB09TJkiE5JW78rpeBq4\nT8PrBO4nAgMBAAECggEAQ0btYVucIfXWdK3Q6s+eP5YQ1FZLtePHTj3JQA1IID38\nKx1rvMCXjXG/CNBfFywkg1Lq0GTK/xx8+vWIi20aTN8N3R4kFHhTv/Jn/wAbL5tK\nrsZASjkzftamM+AszYKCipFBlD+ofA44XeVrDoLxvNPvxaA34LDa4+2xg/tglICT\nmlTo2EttyLc+P2YfT2qh3XS7XiueODmWag6LlLHEQzHo8aWKIVRnnuFqGxiNfsLm\n58zLVpClwRN+C1zwS9yZqiQkItP8W4LNUVpwnpsiLzbv7Qc4e3geuk0qcxFL1u6x\nSOOa1Md+vnh6wyubEO57nmtClNbA0lFZu9oOBsbg6QKBgQD4wYfp5WPwumdugzWs\nNjKnxA+/4JAYCnJvzLL9q3Abu/oPRGvXRv/lJzaf4POE4ZlCYU3qA3/ztbFNLUQ3\nVQMq/3olA1xOA5Do3C4yd7x150Fjhqw3TJ+SGc0FQgQG8YX8eCOWnk5FIb1RidSg\nQBjQJTer7mACHXoH7ct4stqxJQKBgQDLW71wWJUtZalWszXXZkXcMJDRynyVvSyC\nRjjbHfOfuHLW/kbZ1uA5Ttiy3Nlv0jl1ye2KexulwrUP/Bqdro3i2f0OiWaB642O\nZ58K6oD1yKcS2H9BGdVGxvrtke90eztmuGClKbq5pIbc7MrEfrRncby3T2LBl0V+\nOSG0440+WwKBgQDxUf5iYBEWRh91TIDTMjjuG/wTbu0bBXeDEhhKkvhNT40FJqFf\n1RcG3YXWkEpuDNW7Wd5WOVL1wLviXRmifCx4mCOMqLfxTvBTltaSSypfTxtWTB3h\n/8mF2NXWVfbGLaSICpyrz6Oq2VJqOcY2ODhaJODfQH+PTb1G19/eldQmqQKBgQCF\n18WhMcxNasG/fIgNUxTbzWMjkP/alf27aHh3TwlPsFh1RDphmdlOHqTlZBIAVP7Y\nlaSwJkKWIMaG1Mi3y3E7Q3oYnTpIfD5Y4b59ssZZ/kxoTPHEaTpEMSZqQki2A32f\nJ+8EBakOEklpEriKB1K5WtR4WdmHzQZCA1w58CLATQKBgHPPm75nVu+sc1kKaSlo\nW0o7tVUe/5IKYtgcZQ8AKVhi1PeCRP/4wQLGCkZUavzJa0bchZ9DTXdIwQnUYsVv\n8iXyFO++gOWF9sL8yVLxKqpD846xQrWccr7rh4tQN2q/PbnfprPz7QVayWGsFdCZ\nP3LuM0/93G3gxH/BsJV2ngpd\n-----END PRIVATE KEY-----\n",
  "client_email": "fanaka-server@appspot.gserviceaccount.com",
  "client_id": "115140877627928842635",
  "auth_uri": "https://accounts.google.com/o/oauth2/auth",
  "token_uri": "https://oauth2.googleapis.com/token",
  "auth_provider_x509_cert_url": "https://www.googleapis.com/oauth2/v1/certs",
  "client_x509_cert_url": "https://www.googleapis.com/robot/v1/metadata/x509/fanaka-server%40appspot.gserviceaccount.com"
}
